<?xml version="1.0" encoding="UTF-8"?>
<svg width="55px" height="53px" viewBox="0 0 55 53" version="1.1" xmlns="http://www.w3.org/2000/svg" xmlns:xlink="http://www.w3.org/1999/xlink">
    <!-- Generator: Sketch 51.3 (57544) - http://www.bohemiancoding.com/sketch -->
    <title>inscriete</title>
    <desc>Created with Sketch.</desc>
    <defs></defs>
    <g id="Page-1" stroke="none" stroke-width="1" fill="none" fill-rule="evenodd" stroke-linecap="round" stroke-linejoin="round">
        <g id="Artboard" transform="translate(-931.000000, -2337.000000)" stroke="#FFFFFF">
            <g id="inscriete" transform="translate(932.000000, 2338.000000)">
                <path d="M10,5 C10,5.552 9.552,6 9,6 C8.448,6 8,5.552 8,5 C8,4.448 8.448,4 9,4 C9.552,4 10,4.448 10,5 Z" id="Stroke-1702"></path>
                <path d="M8,5.1 L8,0" id="Stroke-1704"></path>
                <path d="M21,5 C21,5.552 20.552,6 20,6 C19.448,6 19,5.552 19,5 C19,4.448 19.448,4 20,4 C20.552,4 21,4.448 21,5 Z" id="Stroke-1706"></path>
                <path d="M19,5.1 L19,0" id="Stroke-1708"></path>
                <path d="M32,5 C32,5.552 31.552,6 31,6 C30.448,6 30,5.552 30,5 C30,4.448 30.448,4 31,4 C31.552,4 32,4.448 32,5 Z" id="Stroke-1710"></path>
                <path d="M29,5.1 L29,0" id="Stroke-1712"></path>
                <path d="M43,2 L50.949008,9.65" id="Stroke-1714"></path>
                <polyline id="Stroke-1716" points="17 27 20.974504 27 22.2993387 29.55 24.949008 30.825 26.2738427 33.375"></polyline>
                <path d="M13,39 L14,40" id="Stroke-1718"></path>
                <path d="M44.7219596,6 L21,28.82964" id="Stroke-1720"></path>
                <path d="M38,6.38112 L38,3.06 C38,1.37088 36.5813333,0 34.8333333,0 L3.16666667,0 C1.41866667,0 0,1.37088 0,3.06 L0,47.94 C0,49.62912 1.41866667,51 3.16666667,51 L34.8333333,51 C36.5813333,51 38,49.62912 38,47.94 L38,22.08708" id="Stroke-1722"></path>
                <path d="M24.125,35.875 L51.8471,9.12455 C52.559,8.42755 53,7.46815 53,6.40625 C53,5.34435 52.559,4.38495 51.8471,3.68795 L49.2221,1.12545 C48.5081,0.4305 47.5253,0 46.4375,0 C45.3497,0 44.3669,0.4305 43.6529,1.12545 L16.25,28.1875 L11,41 L24.125,35.875 Z" id="Stroke-1724"></path>
                <path d="M24.125,35.875 L51.8471,9.12455 C52.559,8.42755 53,7.46815 53,6.40625 C53,5.34435 52.559,4.38495 51.8471,3.68795 L49.2221,1.12545 C48.5081,0.4305 47.5253,0 46.4375,0 C45.3497,0 44.3669,0.4305 43.6529,1.12545 L16.25,28.1875 L11,41 L24.125,35.875 Z" id="Stroke-1726"></path>
            </g>
        </g>
    </g>
</svg>